…
Hacemos un group_by y un do, ya sé que en R haríamos un lm(y ~ factor(id) * x, data =df  ) y punto, pero es por algo lo de hacerlo de otra forma.

coeficientes <- df %>%
  group_by(id) %>%
  do(coef_x = coef(lm(y ~ x, .))[2]) %>%
  unnest(coef_x)

coeficientes

## # A tibble: 100 x 2
##       id coef_x
##    <int>  <dbl>
##  1     1   3.73
##  2     2   2.00
##  3     3   3.08
##  4     4   2.56
##  5     5   2.92
##  6     6   2.75
##  7     7   3.26
##  8     8   2.74
##  9     9   2.97
## 10    10   3.11
## # … with 90 more rows
…
Y usamos ahora casi la misma sintaxis que antes, pero en vez de usar lm usamos ml_linear_regression de MLlib.

coeficientes_spark <-  df_tbl %>% group_by(id) %>% 
  do(coeficientes = coef(ml_linear_regression(., y ~ x))[[2]])  %>% 
  unnest(coeficientes)

coeficientes_spark

## # A tibble: 100 x 2
##       id coeficientes
##    <int>        <dbl>
##  1    12         3.04
##  2    13         3.53
##  3    14         2.90
##  4    18         2.39
##  5    25         2.84
##  6    37         2.64
##  7    38         2.96
##  8    46         3.47
##  9    50         2.98
## 10    52         2.85
## # … with 90 more rows
…
