…
g_nordeste <- read_csv(here::here("data/g_nordeste_20210326.csv"))

## 
## ── Column specification ────────────────────────────────────────────────────────
## cols(
##   lugar_de_residencia = col_character(),
##   poblacion_miles = col_double(),
##   confirmados_pdia_14_dias = col_double()
## )

g_nordeste

## # A tibble: 46 x 3
##    lugar_de_residencia poblacion_miles confirmados_pdia_14_dias
##    <chr>                         <dbl>                    <dbl>
##  1 Alamedilla                    0.569                        0
##  2 Albuñán                       0.409                        0
##  3 Aldeire                       0.63                         0
##  4 Alicún de Ortega              0.471                        0
##  5 Alquife                       0.580                        0
##  6 Baza                         20.4                         27
##  7 Beas de Guadix                0.329                        0
##  8 Benalúa                       3.31                        11
##  9 Benamaurel                    2.26                         4
## 10 Calahorra (La)                0.668                        0
## # … with 36 more rows

Y podríamos contruir las tasas brutas por cada mil habitantes.

g_nordeste <- g_nordeste %>% 
  mutate(tasa_bruta = confirmados_pdia_14_dias / poblacion_miles)

g_nordeste %>% 
  arrange(-tasa_bruta)

## # A tibble: 46 x 4
##    lugar_de_residencia poblacion_miles confirmados_pdia_14_dias tasa_bruta
##    <chr>                         <dbl>                    <dbl>      <dbl>
##  1 Cogollos de Guadix            0.642                       17      26.5 
##  2 Purullena                     2.31                        29      12.6 
##  3 Cortes de Baza                1.84                        22      11.9 
##  4 Peza (La)                     1.17                         8       6.86
##  5 Dólar                         0.628                        4       6.37
##  6 Zújar                         2.54                        15       5.90
##  7 Cúllar                        4.09                        23       5.62
##  8 Cuevas del Campo              1.74                         6       3.44
##  9 Benalúa                       3.31                        11       3.32
## 10 Huéneja                       1.17                         3       2.56
## # … with 36 more rows
…
