…
root_directory = "~/canadasreche@gmail.com/public/proyecto_cachitos/"
anno <- "2020"

# Construims un data frame con los nombrs de los ficheros 

nombre_ficheros <- list.files(path = str_glue("{root_directory}{anno}_txt/")) %>% 
    enframe() %>% 
    rename(n_fichero = value)

nombre_ficheros

## # A tibble: 1,344 x 2
##     name n_fichero                     
##    <int> <chr>                         
##  1     1 00000001.jpg.subtitulo.tif.txt
##  2     2 00000002.jpg.subtitulo.tif.txt
##  3     3 00000003.jpg.subtitulo.tif.txt
##  4     4 00000004.jpg.subtitulo.tif.txt
##  5     5 00000005.jpg.subtitulo.tif.txt
##  6     6 00000006.jpg.subtitulo.tif.txt
##  7     7 00000007.jpg.subtitulo.tif.txt
##  8     8 00000008.jpg.subtitulo.tif.txt
##  9     9 00000009.jpg.subtitulo.tif.txt
## 10    10 00000010.jpg.subtitulo.tif.txt
## # … with 1,334 more rows
…
## Joining, by = "name"

glimpse(subtitulos)

## Rows: 1,344
## Columns: 3
## $ name      <int> 1, 2, 3, 4, 5, 6, 7, 8, 9, 10, 11, 12, 13, 14, 15, 16, 17, …
## $ value     <list> ["\f", "\f", "\f", "\f", " \n\f", " \n\f", " \n\f", " \n\f…
## $ n_fichero <chr> "00000001.jpg.subtitulo.tif.txt", "00000002.jpg.subtitulo.t…

subtitulos

## # A tibble: 1,344 x 3
##     name value     n_fichero                     
##    <int> <list>    <chr>                         
##  1     1 <chr [1]> 00000001.jpg.subtitulo.tif.txt
##  2     2 <chr [1]> 00000002.jpg.subtitulo.tif.txt
##  3     3 <chr [1]> 00000003.jpg.subtitulo.tif.txt
##  4     4 <chr [1]> 00000004.jpg.subtitulo.tif.txt
##  5     5 <chr [1]> 00000005.jpg.subtitulo.tif.txt
##  6     6 <chr [1]> 00000006.jpg.subtitulo.tif.txt
##  7     7 <chr [1]> 00000007.jpg.subtitulo.tif.txt
##  8     8 <chr [1]> 00000008.jpg.subtitulo.tif.txt
##  9     9 <chr [1]> 00000009.jpg.subtitulo.tif.txt
## 10    10 <chr [1]> 00000010.jpg.subtitulo.tif.txt
## # … with 1,334 more rows
…
# subtitulos %>% 
#     pull(value) %>% 
#     pluck(16)

Como sabemos que hay muchos ficheros sin texto podemos contar letras.

subtitulos <- subtitulos %>% 
    mutate(n_caracteres = nchar(value)) 

subtitulos %>% 
    group_by(n_caracteres) %>% 
    count()

## # A tibble: 127 x 2
## # Groups:   n_caracteres [127]
##    n_caracteres     n
##           <int> <int>
##  1            1   480
##  2            3   125
##  3            4    17
##  4            5     7
##  5            6    13
##  6            7     2
##  7            8     7
##  8            9     6
##  9           10     4
## 10           11     5
## # … with 117 more rows
…
    return(string)
}

# Haciendo uso de programacion funciona con purrr es muy fácil pasar esta función a cada elemento. y decirle que # el reultado es string con map_chr

subtitulos_proces <- subtitulos %>% 
    mutate(texto = map_chr(value, string_mini_clean)) %>% 
    select(-value)

subtitulos_proces %>% 
  select(texto)

## # A tibble: 664 x 1
##    texto                                                                        
##    <chr>                                                                        
##  1 " a baeza "                                                                  
##  2 "después del añito que hemos pasado quien mm aman 110 se consuela es porque …
##  3 "viendo la actitud del público más que una actuación esto es "               
##  4 "viendo la actitud del público más que una actuación esto es una sesión de c…
##  5 " intura y su conjunto conga del jaruco 2 "                                  
##  6 "la última vez que hiciste algo parecido fue en el súper y llevabas 25 rollo…
##  7 " a que produce nostalgia ver a un grupo de españoles p poniéndose de acuerd…
##  8 " a que produce nostalgia ver a un grupo de españoles poniéndose de acuerdo …
##  9 "jno lomas xte conmigo pi "                                                  
## 10 "í 7 igual lo que nos ha caído es una maldición india rel y este es el orige…
## # … with 654 more rows
…
