…
library(tidyverse)

root_directory = "/media/hd1/canadasreche@gmail.com/public/proyecto_cachitos/"
anno <- "2021"

# Construims un data frame con los nombrs de los ficheros 

nombre_ficheros <- list.files(path = str_glue("{root_directory}{anno}_txt/")) %>% 
    enframe() %>% 
    rename(n_fichero = value)

nombre_ficheros

## # A tibble: 1,384 × 2
##     name n_fichero                     
##    <int> <chr>                         
##  1     1 00000001.jpg.subtitulo.tif.txt
##  2     2 00000002.jpg.subtitulo.tif.txt
##  3     3 00000003.jpg.subtitulo.tif.txt
##  4     4 00000004.jpg.subtitulo.tif.txt
##  5     5 00000005.jpg.subtitulo.tif.txt
##  6     6 00000006.jpg.subtitulo.tif.txt
##  7     7 00000007.jpg.subtitulo.tif.txt
##  8     8 00000008.jpg.subtitulo.tif.txt
##  9     9 00000009.jpg.subtitulo.tif.txt
## 10    10 00000010.jpg.subtitulo.tif.txt
## # … with 1,374 more rows
…
## Joining, by = "name"

glimpse(subtitulos)

## Rows: 1,384
## Columns: 3
## $ name      <int> 1, 2, 3, 4, 5, 6, 7, 8, 9, 10, 11, 12, 13, 14, 15, 16, 17, 1…
## $ value     <list> "\f", "\f", "FUN MÚSICA Y CINTAS DE VÍDEO\n\f", " \n\f", "\…
## $ n_fichero <chr> "00000001.jpg.subtitulo.tif.txt", "00000002.jpg.subtitulo.ti…

subtitulos

## # A tibble: 1,384 × 3
##     name value     n_fichero                     
##    <int> <list>    <chr>                         
##  1     1 <chr [1]> 00000001.jpg.subtitulo.tif.txt
##  2     2 <chr [1]> 00000002.jpg.subtitulo.tif.txt
##  3     3 <chr [1]> 00000003.jpg.subtitulo.tif.txt
##  4     4 <chr [1]> 00000004.jpg.subtitulo.tif.txt
##  5     5 <chr [1]> 00000005.jpg.subtitulo.tif.txt
##  6     6 <chr [1]> 00000006.jpg.subtitulo.tif.txt
##  7     7 <chr [1]> 00000007.jpg.subtitulo.tif.txt
##  8     8 <chr [1]> 00000008.jpg.subtitulo.tif.txt
##  9     9 <chr [1]> 00000009.jpg.subtitulo.tif.txt
## 10    10 <chr [1]> 00000010.jpg.subtitulo.tif.txt
## # … with 1,374 more rows
…
# subtitulos %>% 
#     pull(value) %>% 
#     pluck(16)

Como sabemos que hay muchos ficheros sin texto podemos contar letras.

subtitulos <- subtitulos %>% 
    mutate(n_caracteres = nchar(value)) 

subtitulos %>% 
    group_by(n_caracteres) %>% 
    count()

## # A tibble: 128 × 2
## # Groups:   n_caracteres [128]
##    n_caracteres     n
##           <int> <int>
##  1            1   428
##  2            3    97
##  3            4    19
##  4            5    13
##  5            6    15
##  6            7     8
##  7            8     6
##  8            9     3
##  9           10     3
## 10           11     2
## # … with 118 more rows
…
    return(string)
}

# Haciendo uso de programacion funciona con purrr es muy fácil pasar esta función a cada elemento. y decirle que # el reultado es string con map_chr

subtitulos_proces <- subtitulos %>% 
    mutate(texto = map_chr(value, string_mini_clean)) %>% 
    select(-value)

subtitulos_proces %>% 
  select(texto)

## # A tibble: 778 × 1
##    texto                                                                        
##    <chr>                                                                        
##  1 "fun música y cintas de vídeo "                                              
##  2 "el servicio meteorológico de cachitos informa se prevén vientos de fiesta m…
##  3 "no es para menos llevamos dos años conformándonos solo con aires de siesta "
##  4 "ella resume a la perfección la filosofía de cachitos montar la fiesta busca…
##  5 " ella resume a la perfección la filosofía de cachitos montar la fiesta busc…
##  6 " oncé a2y in love "                                                         
##  7 "esperamos que tengáis una tele bien grande no sabemos si cabrá tanto flow e…
##  8 "liberté egalité fraternité vacunaté y beyoncé la lola flores negra ejercien…
##  9 "mirad su pelo ya os dijimos que el aire de fiesta iba a soplar fuerte esta …
## 10 "mirad su pelo ya os dijimos que el aire de fiesta iba a soplar fuerte esta …
## # … with 768 more rows

Y ya vemos a simple vista que hay algun duplicado. Calculemos ahora la distancia de strings, utilizando la función stringdist de la librería del mismo nombre.

subtitulos_proces %>% 
    mutate(texto_anterior = lag(texto)) %>% 
    # calculamos distancias con método lcs (que no me he leído que hace exactamente)
    mutate(distancia = stringdist::stringdist(texto, texto_anterior, method = "lcs")) %>% 
  # veamos algunos elementos
    filter(distancia < 19) %>% 
    arrange(desc(distancia) ) %>% 
    select(texto, texto_anterior, distancia) 

## # A tibble: 89 × 3
##    texto                           texto_anterior                      distancia
##    <chr>                           <chr>                                   <dbl>
##  1 " la rosalía emérita "          " alía ica ye yé a "                       18
##  2 "chango llegó a españa como as… "chango llegó a españa como aspira…        15
##  3 "leonard cohen y el pitufo gru… "leonard cohen y el pitufo gruñón …        13
##  4 " el stress del año 2000 nos l… " el stress del año 2000 nos llegó…         7
##  5 "aquí ya llevaba cuatro años d… "aquí ya llevaba cuatro años de ca…         7
##  6 "imborrable siempre la sonrisa… "la imborrable siempre la sonrisa …         6
##  7 "7 literalmente significa pued… "literalmente significa puedes toc…         6
##  8 " las palabras no vienen fácil… " las palabras no vienen fácilment…         5
##  9 "en españa el g arm nació ya v… "en españa el glam nació ya vintag…         5
## 10 "nosotros también lo sentimos … " 4 nosotros también lo sentimos s…         5
## # … with 79 more rows
…
