…
Podemos ver cuántos encuestados hay por cada sexo,edad, y recuerdo de voto, contando los datos brutos o los datos utilizando la ponderación que ha calculado el CIS.

df %>% 
  group_by(sexo, gedad, recuerdo) %>% 
  summarise(total = n(),
            peso_tot = sum(peso))

## `summarise()` has grouped output by 'sexo', 'gedad'. You can override using the `.groups` argument.

## # A tibble: 509 × 5
## # Groups:   sexo, gedad [31]
##    sexo   gedad      recuerdo       total peso_tot
##    <fct>  <fct>      <fct>          <int>    <dbl>
##  1 Hombre 18-24 años PP                 7    6.82 
##  2 Hombre 18-24 años PSOE              17   18.1  
##  3 Hombre 18-24 años C's                2    2.11 
##  4 Hombre 18-24 años En Comú Podem      4    4.10 
##  5 Hombre 18-24 años Més Compromís      1    1.03 
##  6 Hombre 18-24 años EAJ-PNV            2    2.06 
##  7 Hombre 18-24 años Na+                1    0.563
##  8 Hombre 18-24 años VOX                4    4.13 
##  9 Hombre 18-24 años Unidas Podemos    13   13.7  
## 10 Hombre 18-24 años BNG                2    2.05 
## # … with 499 more rows
…
siglas_cis <-  read_csv("/home/jose/Rstudio_projects/raking_ejemplo/siglas_cis.csv")

## Rows: 28 Columns: 2

## ── Column specification ────────────────────────────────────────────────────────
## Delimiter: ","
## chr (2): recuerdo, key

## 
## ℹ Use `spec()` to retrieve the full column specification for this data.
## ℹ Specify the column types or set `show_col_types = FALSE` to quiet this message.

siglas_cis

## # A tibble: 28 × 2
##    recuerdo       key       
##    <chr>          <chr>     
##  1 No recuerda    abstencion
##  2 No votó        abstencion
##  3 C's            CIUDADANOS
##  4 PSOE           PSOE      
##  5 PP             PP        
##  6 N.C.           abstencion
##  7 VOX            VOX       
##  8 En blanco      abstencion
##  9 Unidas Podemos PODEMOS-IU
## 10 PACMA          PACMA     
## # … with 18 more rows
…
